…
```r
steps <- data %>%
  filter(!is.na(steps)) %>%
  group_by(date) %>%
  summarize(steps = sum(steps)) %>%
  print
```

```
## `summarise()` ungrouping output (override with `.groups` argument)
```

```
## # A tibble: 53 x 2
##    date       steps
##    <date>     <dbl>
##  1 2012-10-02   126
##  2 2012-10-03 11352
##  3 2012-10-04 12116
##  4 2012-10-05 13294
##  5 2012-10-06 15420
##  6 2012-10-07 11015
##  7 2012-10-09 12811
##  8 2012-10-10  9900
##  9 2012-10-11 10304
## 10 2012-10-12 17382
## # … with 43 more rows
```
…
4. Calculate and display the number of steps taken in each 5-minute interval per day: 

```r
steps_full <- data %>%
  group_by(date) %>%
  summarize(steps = sum(steps)) %>%
  print
```

```
## `summarise()` ungrouping output (override with `.groups` argument)
```

```
## # A tibble: 61 x 2
##    date        steps
##    <date>      <dbl>
##  1 2012-10-01 10766.
##  2 2012-10-02   126 
##  3 2012-10-03 11352 
##  4 2012-10-04 12116 
##  5 2012-10-05 13294 
##  6 2012-10-06 15420 
##  7 2012-10-07 11015 
##  8 2012-10-08 10766.
##  9 2012-10-09 12811 
## 10 2012-10-10  9900 
## # … with 51 more rows
```
…
